{
	"id": "ui.navigation.topbar",
	"name": "ui.navigation.topbar",
	"description" : "A navigation topbar with title and side buttons.",
	"author": "Orange Digital",
	"version": "1.0",
	"copyright":"Copyright 2014 Orange Digital",
	"license":"Public Domain",
	"min-alloy-version": "1.0",
	"min-titanium-version":"3.0",
	"tags":"",
	"platforms":"android,ios"
}